<?xml version="1.0" encoding="utf-8"?>
<!-- Generator: Adobe Illustrator 15.0.0, SVG Export Plug-In . SVG Version: 6.00 Build 0)  -->
<!DOCTYPE svg PUBLIC "-//W3C//DTD SVG 1.1//EN" "http://www.w3.org/Graphics/SVG/1.1/DTD/svg11.dtd">
<svg version="1.1" xmlns="http://www.w3.org/2000/svg" xmlns:xlink="http://www.w3.org/1999/xlink" x="0px" y="0px"
	 width="737.008px" height="737.009px" viewBox="-368.498 -369.004 737.008 737.009"
	 enable-background="new -368.498 -369.004 737.008 737.009" xml:space="preserve">
<g id="Слой_2">
	<rect x="-368.508" y="-369.004" fill="#231F20" width="737.019" height="737.009"/>
</g>
<g id="Слой_1">
	<g>
		<g>
			<path fill="#FFFFFF" d="M166.522,68.184c-4.879-2.694-10.121-4.605-15.579-5.681l-2.616-0.516l0.438-2.631
				c1.362-8.195,2.053-16.544,2.053-24.817c0-62.468-39.352-119.226-97.922-141.236l-2.497-0.938l0.863-2.523
				c1.792-5.247,2.759-10.742,2.874-16.332l0.078-3.806l3.588,1.272c69.188,24.522,115.673,90.254,115.673,163.564
				c0,10.627-0.983,21.307-2.922,31.742l-0.696,3.745L166.522,68.184z"/>
			<path fill="#FFFFFF" d="M-170.543,66.371c-1.949-10.471-2.938-21.182-2.938-31.834c0-73.311,46.484-139.041,115.671-163.562
				l3.589-1.272l0.078,3.806c0.113,5.587,1.08,11.082,2.873,16.333l0.861,2.522l-2.495,0.938
				c-58.568,22.011-97.919,78.77-97.919,141.236c0,8.279,0.692,16.636,2.058,24.838l0.437,2.623l-2.606,0.524
				c-5.444,1.093-10.682,3.026-15.569,5.746l-3.339,1.859L-170.543,66.371z"/>
			<path fill="#FFFFFF" d="M-0.004,208.013c-41.219,0-81.202-14.776-112.584-41.607l-2.887-2.468l3.248-1.97
				c4.724-2.866,8.991-6.454,12.684-10.663l1.757-2.002l2.057,1.693c26.908,22.158,60.904,34.361,95.727,34.361
				c34.875,0,68.909-12.233,95.834-34.446l2.061-1.7l1.758,2.011c3.686,4.216,7.943,7.813,12.654,10.688l3.232,1.973l-2.876,2.461
				C81.264,193.214,41.253,208.013-0.004,208.013z"/>
		</g>
		<path fill="#FFFFFF" d="M-0.004-67.948c-25.516,0-48.208-16.25-56.467-40.435c-1.977-5.784-3.042-11.838-3.167-17.996
			l-0.012-0.419c-0.01-0.277-0.019-0.544-0.019-0.814c0-32.899,26.765-59.665,59.665-59.665s59.665,26.765,59.665,59.665
			c0,0.272-0.008,0.543-0.018,0.813l-0.012,0.41c-0.127,6.167-1.193,12.222-3.168,18.007C48.208-84.198,25.515-67.948-0.004-67.948z
			 M-0.004-164.621c-19.113,0-34.944,14.33-36.824,33.333c-0.122,1.239-0.184,2.475-0.184,3.674c0,4.203,0.71,8.342,2.111,12.3
			c5.226,14.778,19.25,24.708,34.896,24.708c15.647,0,29.672-9.929,34.898-24.708c1.4-3.958,2.11-8.096,2.11-12.3
			c0-1.214-0.062-2.45-0.183-3.674C34.939-150.291,19.108-164.621-0.004-164.621z"/>
		<path fill="#FFFFFF" d="M140.438,175.304c-10.953,0-21.673-3.009-31-8.702c-5.19-3.171-9.876-7.129-13.928-11.763
			c-9.503-10.882-14.737-24.804-14.737-39.2c0-32.899,26.766-59.665,59.665-59.665c3.858,0,7.75,0.382,11.569,1.136
			c6.018,1.186,11.795,3.293,17.172,6.262c19.073,10.528,30.922,30.556,30.924,52.269
			C200.104,148.539,173.338,175.304,140.438,175.304z M140.438,78.631c-20.406,0-37.008,16.602-37.008,37.008
			c0,8.761,3.142,17.272,8.846,23.966c3.502,4.108,7.938,7.463,12.831,9.702c4.846,2.216,10.004,3.339,15.332,3.339
			c20.406,0,37.007-16.602,37.007-37.007c0-11.854-5.775-23.087-15.449-30.048c-4.45-3.202-9.421-5.33-14.778-6.325
			C144.955,78.844,142.673,78.631,140.438,78.631z"/>
		<path fill="#FFFFFF" d="M-140.25,175.292c-32.899,0-59.665-26.765-59.665-59.665c0-21.619,11.777-41.606,30.736-52.161
			c5.386-2.997,11.159-5.128,17.16-6.333c3.868-0.777,7.828-1.17,11.768-1.17c32.899,0,59.665,26.766,59.665,59.665
			c0,14.449-5.266,28.407-14.828,39.303c-4.064,4.632-8.763,8.581-13.965,11.737C-118.67,172.31-129.346,175.292-140.25,175.292z
			 M-140.25,78.62c-2.305,0-4.645,0.224-6.955,0.666c-5.357,1.024-10.321,3.178-14.755,6.402
			c-9.578,6.967-15.297,18.159-15.297,29.94c0,20.406,16.602,37.007,37.007,37.007c5.276,0,10.39-1.104,15.199-3.28
			c4.902-2.219,9.354-5.559,12.874-9.659c5.761-6.709,8.934-15.257,8.934-24.068C-103.243,95.221-119.845,78.62-140.25,78.62z"/>
	</g>
	<g>
		<g>
			<path fill="#FFFFFF" d="M-214.326,281.614c-12.504,0-22.677-10.173-22.677-22.677c0-12.504,10.173-22.678,22.677-22.678
				l428.844-0.011c12.504,0,22.677,10.173,22.677,22.677c0,12.504-10.173,22.677-22.677,22.677L-214.326,281.614z"/>
			<g>
				<path fill="#FFFFFF" d="M-214.326-12.61c-12.504,0-22.677-10.173-22.677-22.678v-97.29c0-12.504,10.173-22.677,22.677-22.677
					c12.504,0,22.678,10.173,22.678,22.677v97.29C-191.648-22.784-201.821-12.61-214.326-12.61z"/>
				<path fill="#FFFFFF" d="M214.515-12.61c-12.504,0-22.677-10.173-22.677-22.678v-97.29c0-12.504,10.173-22.677,22.677-22.677
					s22.677,10.173,22.677,22.677v97.29C237.192-22.784,227.019-12.61,214.515-12.61z"/>
			</g>
			<path fill="#FFFFFF" d="M259.418-87.481c-3.964,0-7.88-1.052-11.324-3.042L0.671-233.375c-0.208-0.12-0.441-0.18-0.674-0.18
				s-0.465,0.06-0.674,0.18L-248.1-90.522c-3.443,1.989-7.358,3.041-11.323,3.041c-8.086,0-15.617-4.346-19.654-11.342
				c-6.251-10.827-2.528-24.723,8.299-30.977L-11.34-279.59c0.19-0.109,0.367-0.2,0.544-0.286c0.435-0.234,0.828-0.438,1.227-0.623
				c0.299-0.141,0.613-0.272,0.927-0.402c0.41-0.167,0.749-0.302,1.096-0.423c0.34-0.122,0.718-0.239,1.096-0.352
				c0.313-0.093,0.629-0.184,0.949-0.264c0.415-0.104,0.82-0.189,1.232-0.268c0.316-0.06,0.632-0.118,0.951-0.165
				c0.385-0.056,0.776-0.102,1.169-0.14c0.355-0.034,0.689-0.059,1.029-0.077c0.158-0.008,0.326-0.008,0.489-0.008
				c0.238,0,0.468-0.003,0.676-0.017c0.409,0.001,0.76,0.009,1.112,0.028c0.302,0.014,0.636,0.04,0.966,0.073
				c0.393,0.035,0.822,0.085,1.248,0.149c0.313,0.048,0.608,0.1,0.9,0.157c0.388,0.073,0.823,0.165,1.26,0.276
				c0.294,0.074,0.588,0.158,0.885,0.246c0.375,0.11,0.776,0.236,1.178,0.38c0.292,0.103,0.593,0.223,0.896,0.346l0.127,0.051
				c0.345,0.143,0.659,0.274,0.971,0.421c0.386,0.178,0.782,0.386,1.176,0.598c0.204,0.099,0.381,0.19,0.556,0.291l259.453,149.799
				c5.247,3.028,8.999,7.918,10.566,13.77c1.568,5.851,0.763,11.962-2.267,17.208C275.038-91.826,267.506-87.481,259.418-87.481z"/>
		</g>
	</g>
	<g>
		<circle fill="none" cx="-0.004" cy="34.536" r="368.504"/>
	</g>
</g>
</svg>
